<svg xmlns="http://www.w3.org/2000/svg" width="93.333" height="15.966" viewBox="0 0 93.333 15.966">
  <g id="Group_3287" data-name="Group 3287" transform="translate(0)">
    <path id="Path_7062" data-name="Path 7062" d="M771.762,414.737l-2.923-5.976h-2.1v5.976H763.81v-14.98h5.87a4.529,4.529,0,0,1,4.861,4.587,4.032,4.032,0,0,1-2.736,3.934l3.345,6.46Zm-2.272-12.371h-2.756v3.955h2.756a1.983,1.983,0,1,0,0-3.955Z" transform="translate(-763.81 -399.511)" fill="gold"/>
    <path id="Path_7063" data-name="Path 7063" d="M771.627,414.737v-14.98h9.868v2.609h-6.943v3.514h5.913v2.609h-5.913v3.639h6.943v2.609Z" transform="translate(-758.702 -399.511)" fill="gold"/>
    <path id="Path_7064" data-name="Path 7064" d="M785.22,414.737h-6.27v-14.98h6.017c2.925,0,4.628,1.64,4.628,4.206a3.47,3.47,0,0,1-1.85,3.1,3.478,3.478,0,0,1,2.062,3.366C789.807,413.223,787.892,414.737,785.22,414.737Zm-.484-12.371h-2.862v3.451h2.862a1.737,1.737,0,1,0,0-3.451Zm.189,6.08h-3.051v3.682h3.051a1.845,1.845,0,1,0,0-3.682Z" transform="translate(-753.916 -399.511)" fill="gold"/>
    <path id="Path_7065" data-name="Path 7065" d="M796.341,413.273a5.82,5.82,0,0,1-8.1,0c-1.516-1.515-1.473-3.388-1.473-5.976s-.043-4.461,1.473-5.976a5.816,5.816,0,0,1,8.1,0c1.515,1.515,1.493,3.386,1.493,5.976S797.856,411.759,796.341,413.273Zm-2.168-10.184a2.431,2.431,0,0,0-1.872-.8,2.48,2.48,0,0,0-1.895.8c-.569.632-.716,1.326-.716,4.208s.147,3.577.716,4.208a2.479,2.479,0,0,0,1.895.8,2.43,2.43,0,0,0,1.872-.8c.569-.632.737-1.326.737-4.208S794.743,403.721,794.174,403.089Z" transform="translate(-748.808 -399.561)" fill="gold"/>
    <path id="Path_7066" data-name="Path 7066" d="M794.644,403.072V400.03h11.917v14.183H794.644v-3.042H803.4v-8.1Z" transform="translate(-743.661 -399.332)" fill="gold"/>
    <path id="Path_7067" data-name="Path 7067" d="M816.081,399.608a17.275,17.275,0,0,1-1.986,3.178q-1.171,1.493-2.141,2.6v10.192h-3.061v-7.828a18.175,18.175,0,0,1-5.058,2.917q-.814.28-.833.281v-3.12q.02,0,.989-.4a18.4,18.4,0,0,0,2.47-1.318,17.915,17.915,0,0,0,3.13-2.52,18.5,18.5,0,0,0,3-3.981Z" transform="translate(-738.199 -399.608)" fill="gold"/>
    <path id="Path_7068" data-name="Path 7068" d="M811.918,402.935v-3.023h6.468v3.023Zm13.788.233a17.084,17.084,0,0,1-2.78,5.774,15.068,15.068,0,0,1-3.616,3.439,14.2,14.2,0,0,1-3.555,1.715,14.008,14.008,0,0,1-2.75.59q-1.066.087-1.088.068V411.6a6.985,6.985,0,0,0,.851-.028,11.052,11.052,0,0,0,2.125-.4,8.965,8.965,0,0,0,2.727-1.336,12.431,12.431,0,0,0,2.642-2.51,14.361,14.361,0,0,0,2.146-4.155Z" transform="translate(-732.373 -399.409)" fill="gold"/>
  </g>
</svg>
